Decision Trees
…
---
## Discriminant Analysis

**Problem:**  There are still **65** predictors, i.e., 65 dimensions!

--

Some of these contain duplicate information.

--

```
## # A tibble: 2,305 x 2
##      Dry Mouth
##    <dbl> <dbl>
##  1     1     1
##  2     0     0
##  3     0     0
##  4     0     0
##  5     0     0
##  6     0     0
##  7     0     0
##  8     0     0
##  9     0     0
## 10     0     0
## # ... with 2,295 more rows
```
…
