Decision Trees: Next Level
…
---
## Random Forests

Randomly choose a few of the predictors to include in the data:

```r
cann_reduced <- cann %>%
  select(1,2, sample(5:65, 30))

cann_reduced
```

```
## # A tibble: 2,305 x 32
##    Strain   Type  Tobacco   Dry Honey Ammonia Giggly Apple Relaxed Flowery Grape
##    <chr>    <fct>   <dbl> <dbl> <dbl>   <dbl>  <dbl> <dbl>   <dbl>   <dbl> <dbl>
##  1 100-Og   hybr~       0     0     0       0      0     0       1       0     0
##  2 98-Whit~ hybr~       0     0     0       0      0     0       1       1     0
##  3 1024     sati~       0     0     0       0      0     0       1       0     0
##  4 13-Dawgs hybr~       0     0     0       0      0     0       1       0     1
##  5 24K-Gold hybr~       0     0     0       0      0     0       1       0     0
##  6 3-Bears~ indi~       0     0     0       0      0     0       0       0     0
##  7 3-Kings  hybr~       0     0     0       0      0     0       1       0     0
##  8 303-Og   indi~       0     0     0       0      1     0       1       0     0
##  9 3D-Cbd   sati~       0     0     0       0      0     0       1       1     0
## 10 3X-Crazy indi~       0     0     0       0      0     0       1       0     1
## # ... with 2,295 more rows, and 21 more variables: Tea <dbl>, Blueberry <dbl>,
## #   Creative <dbl>, Menthol <dbl>, Tropical <dbl>, Woody <dbl>, Earthy <dbl>,
## #   Skunk <dbl>, Citrus <dbl>, Mouth <dbl>, Berry <dbl>, Pungent <dbl>,
## #   Chestnut <dbl>, Blue <dbl>, Happy <dbl>, Vanilla <dbl>, Focused <dbl>,
## #   Lavender <dbl>, Talkative <dbl>, Grapefruit <dbl>, Fruit <dbl>
```
…
