FAQ/Review
…
ins_new <- ins_new %>%
  mutate(
    smoker_predicted = predict_classes$.pred_class,
    smoker_prob_no = predict_probs$.pred_no,
    smoker_prob_yes = predict_probs$.pred_yes
  )
```

---

```
## # A tibble: 143 x 4
##    smoker smoker_predicted smoker_prob_no smoker_prob_yes
##    <fct>  <fct>                     <dbl>           <dbl>
##  1 no     no                        0.996         0.00362
##  2 no     no                        0.956         0.0443 
##  3 no     no                        0.997         0.00296
##  4 no     no                        0.876         0.124  
##  5 no     no                        0.896         0.104  
##  6 no     no                        0.997         0.00341
##  7 no     no                        0.923         0.0770 
##  8 no     no                        0.996         0.00404
##  9 no     no                        0.988         0.0118 
## 10 no     no                        0.979         0.0215 
## # ... with 133 more rows
```
…
---
# What's the deal with ROC anyways?

```r
ins_new <- ins_new %>%
  mutate(
    cutoff_50 = ifelse(smoker_prob_yes > 0.5, "yes", "no"),
    cutoff_50 = factor(cutoff_50)
  )
```

---

```
## # A tibble: 143 x 5
##    smoker smoker_predicted cutoff_50 smoker_prob_no smoker_prob_yes
##    <fct>  <fct>            <fct>              <dbl>           <dbl>
##  1 no     no               no                 0.996         0.00362
##  2 no     no               no                 0.956         0.0443 
##  3 no     no               no                 0.997         0.00296
##  4 no     no               no                 0.876         0.124  
##  5 no     no               no                 0.896         0.104  
##  6 no     no               no                 0.997         0.00341
##  7 no     no               no                 0.923         0.0770 
##  8 no     no               no                 0.996         0.00404
##  9 no     no               no                 0.988         0.0118 
## 10 no     no               no                 0.979         0.0215 
## # ... with 133 more rows
```
…
--

```r
ins_new <- ins_new %>%
  mutate(
    cutoff_75 = ifelse(smoker_prob_yes > 0.75, "yes", "no"),
    cutoff_75 = factor(cutoff_75)
  )
```

---

```
## # A tibble: 143 x 5
##    smoker smoker_predicted cutoff_50 smoker_prob_no smoker_prob_yes
##    <fct>  <fct>            <fct>              <dbl>           <dbl>
##  1 no     no               no                 0.996         0.00362
##  2 no     no               no                 0.956         0.0443 
##  3 no     no               no                 0.997         0.00296
##  4 no     no               no                 0.876         0.124  
##  5 no     no               no                 0.896         0.104  
##  6 no     no               no                 0.997         0.00341
##  7 no     no               no                 0.923         0.0770 
##  8 no     no               no                 0.996         0.00404
##  9 no     no               no                 0.988         0.0118 
## 10 no     no               no                 0.979         0.0215 
## # ... with 133 more rows
```
…
